<svg xmlns="http://www.w3.org/2000/svg" xmlns:xlink="http://www.w3.org/1999/xlink" width="496.077" height="458.905" viewBox="0 0 496.077 458.905">
  <defs>
    <linearGradient id="linear-gradient" x1="0.5" y1="1" x2="0.5" gradientUnits="objectBoundingBox">
      <stop offset="0" stop-color="gray" stop-opacity="0.251"/>
      <stop offset="0.54" stop-color="gray" stop-opacity="0.122"/>
      <stop offset="1" stop-color="gray" stop-opacity="0.102"/>
    </linearGradient>
    <clipPath id="clip-path">
      <rect id="_Rectangle_" data-name="&lt;Rectangle&gt;" width="84.716" height="57.108" fill="#fff"/>
    </clipPath>
    <linearGradient id="linear-gradient-6" x1="0.518" y1="1.092" x2="0.518" y2="-0.251" xlink:href="#linear-gradient"/>
    <linearGradient id="linear-gradient-7" x1="0.6" y1="0.66" x2="0.6" y2="0.086" xlink:href="#linear-gradient"/>
    <linearGradient id="linear-gradient-8" x1="0.5" y1="1" x2="0.5" gradientUnits="objectBoundingBox">
      <stop offset="0" stop-color="#b3b3b3" stop-opacity="0.251"/>
      <stop offset="0.54" stop-color="#b3b3b3" stop-opacity="0.102"/>
      <stop offset="1" stop-color="#b3b3b3" stop-opacity="0.051"/>
    </linearGradient>
    <linearGradient id="linear-gradient-9" x1="0.5" y1="0.999" x2="0.5" gradientUnits="objectBoundingBox">
      <stop offset="0" stop-opacity="0.122"/>
      <stop offset="0.55" stop-opacity="0.09"/>
      <stop offset="1" stop-opacity="0.02"/>
    </linearGradient>
    <linearGradient id="linear-gradient-10" x1="0.5" y1="1" x2="0.5" y2="0" xlink:href="#linear-gradient-9"/>
  </defs>
  <g id="Grupo_2361" data-name="Grupo 2361" transform="translate(0 0.017)">
    <g id="Grupo_2352" data-name="Grupo 2352" transform="translate(90.82 76.709)" opacity="0.5">
      <rect id="Rectángulo_2032" data-name="Rectángulo 2032" width="264.206" height="355.032" fill="url(#linear-gradient)"/>
    </g>
    <rect id="Rectángulo_2033" data-name="Rectángulo 2033" width="255.952" height="342.648" transform="translate(94.261 81.528)" fill="#f2f2f2"/>
    <rect id="Rectángulo_2034" data-name="Rectángulo 2034" width="88.069" height="2.751" transform="translate(114.216 95.974)" fill="#e0e0e0"/>
    <rect id="Rectángulo_2035" data-name="Rectángulo 2035" width="88.069" height="2.751" transform="translate(114.216 108.359)" fill="#48b0f7" opacity="0.7"/>
    <rect id="Rectángulo_2036" data-name="Rectángulo 2036" width="88.069" height="2.751" transform="translate(215.358 95.974)" fill="#e0e0e0"/>
    <rect id="Rectángulo_2037" data-name="Rectángulo 2037" width="88.069" height="2.751" transform="translate(229.115 174.416)" fill="#e0e0e0"/>
    <rect id="Rectángulo_2038" data-name="Rectángulo 2038" width="88.069" height="2.751" transform="translate(231.183 181.981)" fill="#e0e0e0"/>
    <rect id="Rectángulo_2039" data-name="Rectángulo 2039" width="88.069" height="2.751" transform="translate(235.313 189.552)" fill="#e0e0e0"/>
    <rect id="Rectángulo_2040" data-name="Rectángulo 2040" width="88.069" height="2.751" transform="translate(229.115 296.197)" fill="#e0e0e0"/>
    <rect id="Rectángulo_2041" data-name="Rectángulo 2041" width="88.069" height="2.751" transform="translate(231.183 303.768)" fill="#e0e0e0"/>
    <rect id="Rectángulo_2042" data-name="Rectángulo 2042" width="88.069" height="2.751" transform="translate(235.313 311.332)" fill="#e0e0e0"/>
    <g id="Grupo_2353" data-name="Grupo 2353" transform="translate(114.905 146.201)" opacity="0.5">
      <rect id="Rectángulo_2043" data-name="Rectángulo 2043" width="93.571" height="94.95" fill="url(#linear-gradient)"/>
    </g>
    <rect id="Rectángulo_2044" data-name="Rectángulo 2044" width="92.099" height="90.82" transform="translate(115.494 148.269)" fill="#f5f5f5"/>
    <g id="Grupo_2354" data-name="Grupo 2354" transform="translate(118.741 153.772)" opacity="0.5">
      <rect id="Rectángulo_2045" data-name="Rectángulo 2045" width="85.901" height="59.17" fill="url(#linear-gradient)"/>
    </g>
    <rect id="_Rectangle_3" data-name="&lt;Rectangle&gt;" width="84.716" height="57.108" transform="translate(119.33 154.461)" fill="#fff"/>
    <g id="Grupo_2355" data-name="Grupo 2355" transform="translate(119.33 154.461)" clip-path="url(#clip-path)">
      <path id="Trazado_2642" data-name="Trazado 2642" d="M188.431,322.024,209.765,289l8.944,14.446,19.266-19.949,16.514,19.949,14.446-29.582,37.153,59.17L185.68,328.9Z" transform="translate(-195.613 -266.979)" fill="#48b0f7" opacity="0.4"/>
      <circle id="Elipse_100" data-name="Elipse 100" cx="6.192" cy="6.192" r="6.192" transform="translate(3.14 2.062)" fill="#48b0f7" opacity="0.4"/>
    </g>
    <g id="Grupo_2356" data-name="Grupo 2356" transform="translate(114.905 267.987)" opacity="0.5">
      <rect id="Rectángulo_2046" data-name="Rectángulo 2046" width="93.571" height="94.95" fill="url(#linear-gradient)"/>
    </g>
    <rect id="Rectángulo_2047" data-name="Rectángulo 2047" width="92.099" height="90.82" transform="translate(115.494 270.05)" fill="#f5f5f5"/>
    <g id="Grupo_2357" data-name="Grupo 2357" transform="translate(118.741 275.558)" opacity="0.5">
      <rect id="Rectángulo_2048" data-name="Rectángulo 2048" width="85.901" height="59.17" fill="url(#linear-gradient)"/>
    </g>
    <rect id="_Rectangle_4" data-name="&lt;Rectangle&gt;" width="84.716" height="57.108" transform="translate(119.33 276.242)" fill="#fff"/>
    <g id="Grupo_2358" data-name="Grupo 2358" transform="translate(119.33 276.242)" clip-path="url(#clip-path)">
      <path id="Trazado_2643" data-name="Trazado 2643" d="M188.431,528.724,209.765,495.7l8.944,14.452,19.266-19.955,16.514,19.955,14.446-29.588,37.153,59.17L185.68,535.606Z" transform="translate(-195.613 -473.678)" fill="#bdbdbd" opacity="0.4"/>
      <circle id="Elipse_101" data-name="Elipse 101" cx="6.192" cy="6.192" r="6.192" transform="translate(3.14 2.068)" fill="#bdbdbd" opacity="0.4"/>
    </g>
    <g id="Grupo_2359" data-name="Grupo 2359" transform="translate(129.609 59.167)" opacity="0.5">
      <rect id="Rectángulo_2049" data-name="Rectángulo 2049" width="355.032" height="264.206" transform="translate(0 348.223) rotate(-78.76)" fill="url(#linear-gradient-6)"/>
    </g>
    <rect id="Rectángulo_2050" data-name="Rectángulo 2050" width="342.648" height="255.952" transform="translate(134.456 400.638) rotate(-78.76)" fill="#fff"/>
    <rect id="Rectángulo_2051" data-name="Rectángulo 2051" width="181.646" height="2.751" transform="translate(216.412 83.701) rotate(11.24)" fill="#e0e0e0"/>
    <rect id="Rectángulo_2052" data-name="Rectángulo 2052" width="181.646" height="2.751" transform="translate(165.718 338.799) rotate(11.24)" fill="#e0e0e0"/>
    <rect id="Rectángulo_2053" data-name="Rectángulo 2053" width="140.363" height="2.751" transform="translate(162.628 354.314) rotate(11.24)" fill="#e0e0e0"/>
    <rect id="Rectángulo_2054" data-name="Rectángulo 2054" width="52.289" height="2.751" transform="translate(159.545 369.841) rotate(11.24)" fill="#48b0f7" opacity="0.7"/>
    <rect id="Rectángulo_2055" data-name="Rectángulo 2055" width="90.82" height="2.751" transform="translate(213.323 99.225) rotate(11.24)" fill="#48b0f7" opacity="0.7"/>
    <rect id="Rectángulo_2056" data-name="Rectángulo 2056" width="163.753" height="2.751" transform="translate(210.245 114.745) rotate(11.24)" fill="#e0e0e0"/>
    <rect id="Rectángulo_2057" data-name="Rectángulo 2057" width="39.904" height="2.751" transform="translate(207.157 130.27) rotate(11.24)" fill="#3ad29f" opacity="0.7"/>
    <rect id="Rectángulo_2058" data-name="Rectángulo 2058" width="181.646" height="2.751" transform="translate(204.076 145.791) rotate(11.24)" fill="#e0e0e0"/>
    <g id="Grupo_2360" data-name="Grupo 2360" transform="translate(201.535 211.353)" opacity="0.5">
      <rect id="Rectángulo_2059" data-name="Rectángulo 2059" width="93.572" height="163.064" transform="translate(0 91.777) rotate(-78.76)" fill="url(#linear-gradient-7)"/>
    </g>
    <rect id="Rectángulo_2060" data-name="Rectángulo 2060" width="161.002" height="91.509" transform="translate(220.679 212.229) rotate(11.24)" fill="#fff"/>
    <rect id="Rectángulo_2061" data-name="Rectángulo 2061" width="181.646" height="2.751" transform="translate(200.991 161.318) rotate(11.24)" fill="#e0e0e0"/>
    <path id="Trazado_2653" data-name="Trazado 2653" d="M0,0H19.955V66.741H0Z" transform="translate(234.803 227.663) rotate(11.24)" fill="#48b0f7"/>
    <rect id="Rectángulo_2063" data-name="Rectángulo 2063" width="19.955" height="44.724" transform="translate(265.602 256.233) rotate(11.24)" fill="#009fe3"/>
    <rect id="Rectángulo_2064" data-name="Rectángulo 2064" width="19.955" height="24.079" transform="translate(296.675 283.454) rotate(11.24)" fill="#fc5185"/>
    <rect id="Rectángulo_2065" data-name="Rectángulo 2065" width="19.955" height="48.854" transform="translate(336.596 266.133) rotate(11.24)" fill="#ffa600"/>
    <path id="Trazado_2644" data-name="Trazado 2644" d="M770.334,390.893a91.845,91.845,0,0,0-131.449-.99c-34.761,35.044-35.35,92.1-1.349,127.89a91.845,91.845,0,0,0,117.774,13L821.7,599.847a4.472,4.472,0,0,0,6.322.124l16.544-15.907a4.472,4.472,0,0,0,.124-6.322l-66.376-69.05a91.851,91.851,0,0,0-7.983-117.8Zm-20.68,111.029a65.692,65.692,0,1,1,1.826-92.888,65.692,65.692,0,0,1-1.826,92.888Z" transform="translate(-357.063 -184.686)" fill="url(#linear-gradient-8)"/>
    <path id="Trazado_2645" data-name="Trazado 2645" d="M681.623,487.6c-7.388,0-7.4,11.483,0,11.483S689.023,487.6,681.623,487.6Z" transform="translate(-383.216 -235.997)" fill="url(#linear-gradient-9)"/>
    <path id="Trazado_2646" data-name="Trazado 2646" d="M739.249,425.16c-19.884-.448-37.978,9.527-47.6,24.586-3.14,4.914,5.774,9.256,8.9,4.366,7.966-12.467,23.1-20.385,39.474-19.973a50.29,50.29,0,0,1,41.035,23.867c3.134,5.167,11.353.471,8.248-4.666C779.253,436.843,759.787,425.649,739.249,425.16Z" transform="translate(-389.342 -210.339)" fill="url(#linear-gradient-10)"/>
    <path id="Trazado_2647" data-name="Trazado 2647" d="M782.564,384.973a91.845,91.845,0,0,0-131.449-.99c-34.761,35.044-35.35,92.1-1.349,127.891a91.845,91.845,0,0,0,117.775,12.991l66.387,69.062a4.472,4.472,0,0,0,6.322.124l16.544-15.908a4.472,4.472,0,0,0,.124-6.322l-66.393-69.056a91.851,91.851,0,0,0-7.96-117.792Zm-20.68,110.981a65.692,65.692,0,1,1,1.826-92.888A65.692,65.692,0,0,1,761.885,495.955Z" transform="translate(-362.088 -182.254)" fill="#8b95a5"/>
    <path id="Trazado_2648" data-name="Trazado 2648" d="M693.853,481.67c-7.388,0-7.4,11.483,0,11.483S701.253,481.67,693.853,481.67Z" transform="translate(-388.24 -233.561)" fill="#8b95a5"/>
    <path id="Trazado_2649" data-name="Trazado 2649" d="M751.479,419.24c-19.884-.448-37.978,9.527-47.6,24.586-3.14,4.914,5.774,9.256,8.9,4.366,7.966-12.467,23.1-20.385,39.474-19.973a50.29,50.29,0,0,1,41.035,23.867c3.134,5.167,11.353.471,8.248-4.666C791.465,430.876,772.023,419.682,751.479,419.24Z" transform="translate(-394.367 -207.907)" fill="#8b95a5"/>
    <rect id="Rectángulo_2066" data-name="Rectángulo 2066" width="2.062" height="11.695" transform="translate(71.554 391.147)" fill="#47e6b1"/>
    <rect id="Rectángulo_2067" data-name="Rectángulo 2067" width="2.062" height="11.695" transform="translate(78.436 395.96) rotate(90)" fill="#47e6b1"/>
    <path id="Trazado_2650" data-name="Trazado 2650" d="M744.96,65.217a2.528,2.528,0,0,1-1.408-3.058,1.212,1.212,0,0,0,.053-.283h0a1.267,1.267,0,0,0-2.28-.843h0a1.214,1.214,0,0,0-.141.247,2.528,2.528,0,0,1-3.058,1.408,1.213,1.213,0,0,0-.283-.053h0a1.267,1.267,0,0,0-.831,2.292h0a1.213,1.213,0,0,0,.247.141,2.528,2.528,0,0,1,1.408,3.058,1.218,1.218,0,0,0-.053.283h0a1.267,1.267,0,0,0,2.3.831h0a1.209,1.209,0,0,0,.141-.247,2.527,2.527,0,0,1,3.058-1.408,1.215,1.215,0,0,0,.283.053h0a1.267,1.267,0,0,0,.843-2.28h0a1.217,1.217,0,0,0-.277-.141Z" transform="translate(-408.033 -60.54)" fill="#4d8af0"/>
    <path id="Trazado_2651" data-name="Trazado 2651" d="M310.533,212.367a2.528,2.528,0,0,1-1.408-3.058,1.212,1.212,0,0,0,.053-.283h0a1.267,1.267,0,0,0-2.28-.842h0a1.215,1.215,0,0,0-.141.247,2.528,2.528,0,0,1-3.058,1.408,1.213,1.213,0,0,0-.283-.053h0a1.267,1.267,0,0,0-.843,2.28h0a1.214,1.214,0,0,0,.247.141,2.527,2.527,0,0,1,1.408,3.058,1.214,1.214,0,0,0-.053.283h0a1.267,1.267,0,0,0,2.28.842h0a1.216,1.216,0,0,0,.141-.247,2.527,2.527,0,0,1,3.058-1.408,1.215,1.215,0,0,0,.283.053h0a1.267,1.267,0,0,0,.843-2.28h0A1.212,1.212,0,0,0,310.533,212.367Z" transform="translate(-229.558 -120.994)" fill="#fdd835"/>
    <path id="Trazado_2652" data-name="Trazado 2652" d="M928.313,819.627a2.528,2.528,0,0,1-1.408-3.058,1.217,1.217,0,0,0,.053-.283h0a1.267,1.267,0,0,0-2.28-.843h0a1.218,1.218,0,0,0-.141.247,2.527,2.527,0,0,1-3.058,1.408,1.205,1.205,0,0,0-.283-.053h0a1.267,1.267,0,0,0-.843,2.28h0a1.212,1.212,0,0,0,.248.141,2.528,2.528,0,0,1,1.408,3.058,1.225,1.225,0,0,0-.053.283h0a1.267,1.267,0,0,0,2.28.843h0a1.216,1.216,0,0,0,.141-.248A2.528,2.528,0,0,1,927.436,822a1.219,1.219,0,0,0,.283.053h0a1.267,1.267,0,0,0,.843-2.28h0A1.2,1.2,0,0,0,928.313,819.627Z" transform="translate(-483.363 -370.477)" fill="#f0ca26"/>
    <circle id="Elipse_102" data-name="Elipse 102" cx="4.13" cy="4.13" r="4.13" transform="translate(185.081 40.245)" fill="#ffa600"/>
    <circle id="Elipse_103" data-name="Elipse 103" cx="4.13" cy="4.13" r="4.13" transform="translate(480.937 91.844)" fill="#fc5185"/>
    <circle id="Elipse_104" data-name="Elipse 104" cx="4.13" cy="4.13" r="4.13" transform="translate(457.547 215.004)" fill="#102e46"/>
    <circle id="Elipse_105" data-name="Elipse 105" cx="4.13" cy="4.13" r="4.13" transform="translate(0 12.719)" fill="#47e6b1" opacity="0.5"/>
  </g>
</svg>
