<svg xmlns="http://www.w3.org/2000/svg" width="72.69" height="41.764" viewBox="0 0 72.69 41.764">
  <g id="graduado" transform="translate(2.425 1.1)">
    <g id="Grupo_49" data-name="Grupo 49">
      <path id="Trazado_9" data-name="Trazado 9" d="M1256.5,277.667l-12.417-5.833,16.833-7.333" transform="translate(-1244.083 -256.583)" fill="none" stroke="#fff" stroke-width="2"/>
      <path id="Trazado_10" data-name="Trazado 10" d="M1264.417,263.083l14-6.5,33.5,15.083-12.167,5.5" transform="translate(-1244.083 -256.583)" fill="none" stroke="#fff" stroke-width="2"/>
    </g>
    <line id="Línea_5" data-name="Línea 5" y2="21" transform="translate(47.417 5.917)" fill="none" stroke="#fff" stroke-width="2"/>
    <g id="Elipse_17" data-name="Elipse 17" transform="translate(43.917 26.417)" fill="none" stroke="#fff" stroke-width="2">
      <circle cx="4" cy="4" r="4" stroke="none"/>
      <circle cx="4" cy="4" r="3" fill="none"/>
    </g>
    <g id="Trazado_11" data-name="Trazado 11" transform="translate(42.917 32.417)" fill="none">
      <path d="M3.628,1.549a1,1,0,0,1,1.743,0l2.79,4.96A1,1,0,0,1,7.29,8H1.71A1,1,0,0,1,.838,6.51Z" stroke="none"/>
      <path d="M 4.499990463256836 2.039718151092529 L 4.500000476837158 2.039727687835693 L 1.709850311279297 6.999998092651367 L 7.29015064239502 6.999998092651367 C 7.290151596069336 6.999998092651367 7.290152549743652 6.999998092651367 7.290153503417969 6.999998092651367 C 7.290154933929443 6.999996185302734 7.29015588760376 6.999993801116943 7.290160179138184 6.999998092651367 L 4.499990463256836 2.039718151092529 M 4.499999046325684 1.039730548858643 C 4.840210437774658 1.039730548858643 5.180420398712158 1.209642887115479 5.371570587158203 1.549468040466309 L 8.161730766296387 6.509737968444824 C 8.536690711975098 7.176338195800781 8.054980278015137 7.999998092651367 7.29015064239502 7.999998092651367 L 1.709850311279297 7.999998092651367 C 0.9450206756591797 7.999998092651367 0.4633102416992188 7.176338195800781 0.8382701873779297 6.509737968444824 L 3.628420352935791 1.549468040466309 C 3.819575309753418 1.209642887115479 4.159788131713867 1.039730548858643 4.499999046325684 1.039730548858643 Z" stroke="none" fill="#fff"/>
    </g>
    <path id="Trazado_12" data-name="Trazado 12" d="M1255.5,277.938s17.063-18.625,44.938-.937" transform="translate(-1244.083 -256.583)" fill="none" stroke="#fff" stroke-width="2"/>
    <path id="Trazado_13" data-name="Trazado 13" d="M1256.938,283.938V276.25" transform="translate(-1243.083 -256.583)" fill="none" stroke="#fff" stroke-width="2"/>
    <path id="Trazado_14" data-name="Trazado 14" d="M1256.938,283.938V276.25" transform="translate(-1202.083 -256.583)" fill="none" stroke="#fff" stroke-width="2"/>
    <path id="Trazado_15" data-name="Trazado 15" d="M1257.938,287v5.563s7.563-1.187,19.875,3.75" transform="translate(-1244.083 -256.583)" fill="none" stroke="#fff" stroke-width="2"/>
    <path id="Trazado_16" data-name="Trazado 16" d="M1279.063,287v5.563s-8.038-1.187-21.125,3.75" transform="translate(-1224.208 -256.583)" fill="none" stroke="#fff" stroke-width="2"/>
  </g>
</svg>
